<?xml version="1.0" encoding="utf-8"?>
<!-- Generator: Adobe Illustrator 18.0.0, SVG Export Plug-In . SVG Version: 6.00 Build 0)  -->
<!DOCTYPE svg PUBLIC "-//W3C//DTD SVG 1.1//EN" "http://www.w3.org/Graphics/SVG/1.1/DTD/svg11.dtd">
<svg version="1.1" id="Layer_1" xmlns="http://www.w3.org/2000/svg" xmlns:xlink="http://www.w3.org/1999/xlink" x="0px" y="0px"
	 width="128px" height="128px" viewBox="0 0 128 128" enable-background="new 0 0 128 128" xml:space="preserve">
<radialGradient id="SVGID_1_" cx="64" cy="116.0017" r="45.3469" fx="64.0447" fy="116.8361" gradientTransform="matrix(-1 0 0 -6.250000e-002 128 123.2501)" gradientUnits="userSpaceOnUse">
	<stop  offset="0" style="stop-color:#000000"/>
	<stop  offset="1" style="stop-color:#000000;stop-opacity:0"/>
</radialGradient>
<ellipse opacity="0.3814" fill="url(#SVGID_1_)" enable-background="new    " cx="64" cy="116" rx="64" ry="4"/>
<path fill="#1ABC9C" d="M104,16H24c-8.8,0-16,7.2-16,16v48c0,8.8,7.2,16,16,16v24l24-24h56c8.8,0,16-7.2,16-16V32
	C120,23.2,112.8,16,104,16z"/>
<g>
	<path fill="#FFFFFF" d="M61.4,33.4c-0.8-0.8-2-0.8-2.8,0l-5.2,5.2c-0.8,0.8-0.8,2,0,2.8L68,56L53.4,70.6c-0.8,0.8-0.8,2,0,2.8
		l5.2,5.2c0.8,0.8,2,0.8,2.8,0L84,56L61.4,33.4z"/>
</g>
</svg>
